[TimingPoints]
56563,1e-100,4,1,0,70,1,0
56564,1e+100,4,1,0,70,1,0
56734,2.0000000000000004,4,1,0,70,1,0
56735,1e+100,4,1,0,70,1,0
56906,2.0000000000000004,4,1,0,70,1,0
56907,1e-100,4,1,0,70,1,0
56908,1e+100,4,1,0,70,1,0
57077,1.0000000000000002,4,1,0,70,1,0
57078,1e-100,4,1,0,70,1,0
57079,342.85714285714283,4,1,0,70,1,0
57250,1e+100,4,1,0,70,1,0
57334,4.033613445378151,4,1,0,70,1,0
57335,1e-100,4,1,0,70,1,0
57336,342.85714285714283,4,1,0,70,1,0
57507,1e+100,4,1,0,70,1,0
57591,4.033613445378151,4,1,0,70,1,0
57592,1e-100,4,1,0,70,1,0
57593,1e+100,4,1,0,70,1,0
57763,1.0000000000000002,4,1,0,70,1,0
57764,1e-100,4,1,0,70,1,0
57765,342.85714285714283,4,1,0,70,1,0
57935,1e+100,4,1,0,70,1,0
58020,3.9867109634551494,4,1,0,70,1,0
58021,1e-100,4,1,0,70,1,0
58022,342.85714285714283,4,1,0,70,1,0
58192,1e+100,4,1,0,70,1,0
58277,3.9867109634551494,4,1,0,70,1,0
58278,1e-100,4,1,0,70,1,0
58279,1e+100,4,1,0,70,1,0
58449,1.0000000000000002,4,1,0,70,1,0
58450,1e-100,4,1,0,70,1,0
58451,342.85714285714283,4,1,0,70,1,0
58621,1e+100,4,1,0,70,1,0
58706,3.9867109634551494,4,1,0,70,1,0
58707,1e-100,4,1,0,70,1,0
58708,342.85714285714283,4,1,0,70,1,0
58878,1e+100,4,1,0,70,1,0
58963,3.9867109634551494,4,1,0,70,1,0
58964,1e-100,4,1,0,70,1,0
58965,1e+100,4,1,0,70,1,0
59134,1.0000000000000002,4,1,0,70,1,0
59135,1e-100,4,1,0,70,1,0
59136,1e+100,4,1,0,70,1,0
59306,2.0000000000000004,4,1,0,70,1,0
59307,342.85714285714283,4,1,0,70,1,0
59650,1e-100,4,1,0,70,1,0
59651,1e+100,4,1,0,70,1,0
59820,1.0000000000000002,4,1,0,70,1,0
59821,1e-100,4,1,0,70,1,0
59822,342.85714285714283,4,1,0,70,1,0
59992,1e+100,4,1,0,70,1,0
60077,3.9867109634551494,4,1,0,70,1,0
60078,1e+100,4,1,0,70,1,0
60250,1e+100,4,1,0,70,1,0
60334,4.033613445378151,4,1,0,70,1,0
60335,1e-100,4,1,0,70,1,0
60336,1e+100,4,1,0,70,1,0
60506,1.0000000000000002,4,1,0,70,1,0
60507,1e-100,4,1,0,70,1,0
60508,342.85714285714283,4,1,0,70,1,0
60678,1e+100,4,1,0,70,1,0
60763,3.9867109634551494,4,1,0,70,1,0
60764,1e+100,4,1,0,70,1,0
60935,1e+100,4,1,0,70,1,0
61020,3.9867109634551494,4,1,0,70,1,0
61021,1e-100,4,1,0,70,1,0
61022,1e+100,4,1,0,70,1,0
61191,1.0000000000000002,4,1,0,70,1,0
61192,1e-100,4,1,0,70,1,0
61193,342.85714285714283,4,1,0,70,1,0
61364,1e+100,4,1,0,70,1,0
61449,3.9867109634551494,4,1,0,70,1,0
61450,1e+100,4,1,0,70,1,0
61621,1e+100,4,1,0,70,1,0
61706,3.9867109634551494,4,1,0,70,1,0
61707,342.85714285714283,4,1,0,70,1,0
62221,4.000000000000001,4,1,0,70,1,0
62222,1e+100,4,1,0,70,1,0
62306,4.000000000000001,4,1,0,70,1,0
62307,1e+100,4,1,0,70,1,0
62391,4.000000000000001,4,1,0,70,1,0
62392,1e-100,4,1,0,70,1,0
62393,1e+100,4,1,0,70,1,0
62563,1.0000000000000002,4,1,0,70,1,0
62564,1e-100,4,1,0,70,1,0
62565,342.85714285714283,4,1,0,70,1,0
62735,1e+100,4,1,0,70,1,0
62820,3.9867109634551494,4,1,0,70,1,0
62821,1e-100,4,1,0,70,1,0
62822,342.85714285714283,4,1,0,70,1,0
62992,1e+100,4,1,0,70,1,0
63077,3.9867109634551494,4,1,0,70,1,0
63078,1e-100,4,1,0,70,1,0
63079,1e+100,4,1,0,70,1,0
63249,1.0000000000000002,4,1,0,70,1,0
63250,1e-100,4,1,0,70,1,0
63251,342.85714285714283,4,1,0,70,1,0
63421,1e+100,4,1,0,70,1,0
63506,3.9867109634551494,4,1,0,70,1,0
63507,1e-100,4,1,0,70,1,0
63508,342.85714285714283,4,1,0,70,1,0
63678,1e+100,4,1,0,70,1,0
63763,3.9867109634551494,4,1,0,70,1,0
63764,1e-100,4,1,0,70,1,0
63765,1e+100,4,1,0,70,1,0
63934,1.0000000000000002,4,1,0,70,1,0
63935,1e-100,4,1,0,70,1,0
63936,342.85714285714283,4,1,0,70,1,0
64107,1e+100,4,1,0,70,1,0
64191,4.033613445378151,4,1,0,70,1,0
64192,1e-100,4,1,0,70,1,0
64193,342.85714285714283,4,1,0,70,1,0
64364,1e+100,4,1,0,70,1,0
64449,3.9867109634551494,4,1,0,70,1,0
64450,1e-100,4,1,0,70,1,0
64451,1e+100,4,1,0,70,1,0
64620,1.0000000000000002,4,1,0,70,1,0
64621,1e-100,4,1,0,70,1,0
64622,1e+100,4,1,0,70,1,0
64791,2.0000000000000004,4,1,0,70,1,0
64792,342.85714285714283,4,1,0,70,1,0
65135,1e-100,4,1,0,70,1,0
65136,1e+100,4,1,0,70,1,0
65306,1.0000000000000002,4,1,0,70,1,0
65307,1e-100,4,1,0,70,1,0
65308,342.85714285714283,4,1,0,70,1,0
65478,1e+100,4,1,0,70,1,0
65563,3.9867109634551494,4,1,0,70,1,0
65564,1e+100,4,1,0,70,1,0
65735,1e+100,4,1,0,70,1,0
65820,3.9867109634551494,4,1,0,70,1,0
65821,342.85714285714283,4,1,0,70,1,0
66507,1e-100,4,1,0,70,1,0
66508,1e+100,4,1,0,70,1,0
66677,1.0000000000000002,4,1,0,70,1,0
66678,1e-100,4,1,0,70,1,0
66679,342.85714285714283,4,1,0,70,1,0
66850,1e+100,4,1,0,70,1,0
66934,4.033613445378151,4,1,0,70,1,0
66935,1e+100,4,1,0,70,1,0
67107,1e+100,4,1,0,70,1,0
67191,4.033613445378151,4,1,0,70,1,0
67192,342.85714285714283,4,1,0,70,1,0
67707,4.000000000000001,4,1,0,70,1,0
67708,1e+100,4,1,0,70,1,0
67791,4.000000000000001,4,1,0,70,1,0
67792,1e+100,4,1,0,70,1,0
67877,4.000000000000001,4,1,0,70,1,0
67878,1e-100,4,1,0,70,1,0
67879,1e+100,4,1,0,70,1,0
68049,1.0000000000000002,4,1,0,70,1,0
68050,1e-100,4,1,0,70,1,0
68051,342.85714285714283,4,1,0,70,1,0
68221,1e+100,4,1,0,70,1,0
68306,3.9867109634551494,4,1,0,70,1,0
68307,1e-100,4,1,0,70,1,0
68308,342.85714285714283,4,1,0,70,1,0
68478,1e+100,4,1,0,70,1,0
68563,3.9867109634551494,4,1,0,70,1,0
68564,1e-100,4,1,0,70,1,0
68565,1e+100,4,1,0,70,1,0
68734,1.0000000000000002,4,1,0,70,1,0
68735,1e-100,4,1,0,70,1,0
68736,342.85714285714283,4,1,0,70,1,0
68907,1e+100,4,1,0,70,1,0
68991,4.033613445378151,4,1,0,70,1,0
68992,1e-100,4,1,0,70,1,0
68993,342.85714285714283,4,1,0,70,1,0
69164,1e+100,4,1,0,70,1,0
69249,3.9867109634551494,4,1,0,70,1,0
69250,1e-100,4,1,0,70,1,0
69251,1e+100,4,1,0,70,1,0
69420,1.0000000000000002,4,1,0,70,1,0
69421,1e-100,4,1,0,70,1,0
69422,342.85714285714283,4,1,0,70,1,0
69592,1e+100,4,1,0,70,1,0
69677,3.9867109634551494,4,1,0,70,1,0
69678,1e-100,4,1,0,70,1,0
69679,342.85714285714283,4,1,0,70,1,0
69850,1e+100,4,1,0,70,1,0
69934,4.033613445378151,4,1,0,70,1,0
69935,1e-100,4,1,0,70,1,0
69936,1e+100,4,1,0,70,1,0
70106,1.0000000000000002,4,1,0,70,1,0
70107,1e-100,4,1,0,70,1,0
70108,1e+100,4,1,0,70,1,0
70277,2.0000000000000004,4,1,0,70,1,0
70278,342.85714285714283,4,1,0,70,1,0
70621,1e-100,4,1,0,70,1,0
70622,1e+100,4,1,0,70,1,0
70791,1.0000000000000002,4,1,0,70,1,0
70792,1e-100,4,1,0,70,1,0
70793,342.85714285714283,4,1,0,70,1,0
70964,1e+100,4,1,0,70,1,0
71049,3.9867109634551494,4,1,0,70,1,0
71050,1e+100,4,1,0,70,1,0
71221,1e+100,4,1,0,70,1,0
71306,3.9867109634551494,4,1,0,70,1,0
71307,1e-100,4,1,0,70,1,0
71308,1e+100,4,1,0,70,1,0
71477,1.0000000000000002,4,1,0,70,1,0
71478,1e-100,4,1,0,70,1,0
71479,342.85714285714283,4,1,0,70,1,0
71650,1e+100,4,1,0,70,1,0
71734,4.033613445378151,4,1,0,70,1,0
71735,1e+100,4,1,0,70,1,0
71907,1e+100,4,1,0,70,1,0
71991,4.033613445378151,4,1,0,70,1,0
71992,1e-100,4,1,0,70,1,0
71993,1e+100,4,1,0,70,1,0
72163,1.0000000000000002,4,1,0,70,1,0
72164,1e-100,4,1,0,70,1,0
72165,342.85714285714283,4,1,0,70,1,0
72335,1e+100,4,1,0,70,1,0
72420,3.9867109634551494,4,1,0,70,1,0
72421,1e+100,4,1,0,70,1,0
72592,1e+100,4,1,0,70,1,0
72677,3.9867109634551494,4,1,0,70,1,0
72678,342.85714285714283,4,1,0,70,1,0
73192,4.000000000000001,4,1,0,70,1,0
73193,1e+100,4,1,0,70,1,0
73277,4.000000000000001,4,1,0,70,1,0
73278,1e+100,4,1,0,70,1,0
73363,4.000000000000001,4,1,0,70,1,0
73364,1e-100,4,1,0,70,1,0
73365,1e+100,4,1,0,70,1,0
73534,1.0000000000000002,4,1,0,70,1,0
73535,1e-100,4,1,0,70,1,0
73536,342.85714285714283,4,1,0,70,1,0
73707,1e+100,4,1,0,70,1,0
73791,4.033613445378151,4,1,0,70,1,0
73792,1e-100,4,1,0,70,1,0
73793,342.85714285714283,4,1,0,70,1,0
73964,1e+100,4,1,0,70,1,0
74049,3.9867109634551494,4,1,0,70,1,0
74050,1e-100,4,1,0,70,1,0
74051,1e+100,4,1,0,70,1,0
74220,1.0000000000000002,4,1,0,70,1,0
74221,1e-100,4,1,0,70,1,0
74222,342.85714285714283,4,1,0,70,1,0
74392,1e+100,4,1,0,70,1,0
74477,3.9867109634551494,4,1,0,70,1,0
74478,1e-100,4,1,0,70,1,0
74479,342.85714285714283,4,1,0,70,1,0
74650,1e+100,4,1,0,70,1,0
74734,4.033613445378151,4,1,0,70,1,0
74735,1e-100,4,1,0,70,1,0
74736,1e+100,4,1,0,70,1,0
74906,1.0000000000000002,4,1,0,70,1,0
74907,1e-100,4,1,0,70,1,0
74908,342.85714285714283,4,1,0,70,1,0
75078,1e+100,4,1,0,70,1,0
75163,3.9867109634551494,4,1,0,70,1,0
75164,1e-100,4,1,0,70,1,0
75165,342.85714285714283,4,1,0,70,1,0
75335,1e+100,4,1,0,70,1,0
75420,3.9867109634551494,4,1,0,70,1,0
75421,1e-100,4,1,0,70,1,0
75422,1e+100,4,1,0,70,1,0
75591,1.0000000000000002,4,1,0,70,1,0
75592,1e-100,4,1,0,70,1,0
75593,1e+100,4,1,0,70,1,0
75763,2.0000000000000004,4,1,0,70,1,0
75764,342.85714285714283,4,1,0,70,1,0
76107,1e-100,4,1,0,70,1,0
76108,1e+100,4,1,0,70,1,0
76277,1.0000000000000002,4,1,0,70,1,0
76278,1e-100,4,1,0,70,1,0
76279,342.85714285714283,4,1,0,70,1,0
76450,1e+100,4,1,0,70,1,0
76534,4.033613445378151,4,1,0,70,1,0
76535,1e+100,4,1,0,70,1,0
76707,1e+100,4,1,0,70,1,0
76791,4.033613445378151,4,1,0,70,1,0
76792,342.85714285714283,4,1,0,70,1,0
77478,1e-100,4,1,0,70,1,0
77479,1e+100,4,1,0,70,1,0
77649,1.0000000000000002,4,1,0,70,1,0
77650,1e-100,4,1,0,70,1,0
77651,342.85714285714283,4,1,0,70,1,0
77821,1e+100,4,1,0,70,1,0
77906,3.9867109634551494,4,1,0,70,1,0
77907,1e+100,4,1,0,70,1,0
78078,1e+100,4,1,0,70,1,0
78163,3.9867109634551494,4,1,0,70,1,0
78164,342.85714285714283,4,1,0,70,1,0
78849,2.0000000000000004,4,1,0,70,1,0
78850,342.85714285714283,4,1,0,70,1,0
79021,1e+100,4,1,0,70,1,0
79191,2.0000000000000004,4,1,0,70,1,0
79192,342.85714285714283,4,1,0,70,1,0
79364,1e+100,4,1,0,70,1,0
79534,2.0000000000000004,4,1,0,70,1,0
79535,342.85714285714283,4,1,0,70,1,0
79707,1e+100,4,1,0,70,1,0
79877,2.0000000000000004,4,1,0,70,1,0
79878,342.85714285714283,4,1,0,70,1,0
80050,1e+100,4,1,0,70,1,0
80220,2.0000000000000004,4,1,0,70,1,0
80221,342.85714285714283,4,1,0,70,1,0
80392,1e+100,4,1,0,70,1,0
80563,2.0000000000000004,4,1,0,70,1,0
80564,342.85714285714283,4,1,0,70,1,0
80735,1e+100,4,1,0,70,1,0
80906,2.0000000000000004,4,1,0,70,1,0
80907,342.85714285714283,4,1,0,70,1,0
81078,1e+100,4,1,0,70,1,0
81249,2.0000000000000004,4,1,0,70,1,0
81250,342.85714285714283,4,1,0,70,1,0
81592,1028.5714285714284,4,1,0,70,1,0
81592,-12.5,4,1,0,70,0,0
81612,-10000.0,4,1,0,70,0,0
81632,-12.5,4,1,0,70,0,0
81652,-10000.0,4,1,0,70,0,0
81672,-12.5,4,1,0,70,0,0
81692,-10000.0,4,1,0,70,0,0
81712,-12.5,4,1,0,70,0,0
81732,-10000.0,4,1,0,70,0,0
81752,-12.5,4,1,0,70,0,0
81772,-10000.0,4,1,0,70,0,0
81792,-12.5,4,1,0,70,0,0
81812,-10000.0,4,1,0,70,0,0
81832,-12.5,4,1,0,70,0,0
81852,-10000.0,4,1,0,70,0,0
81872,-12.5,4,1,0,70,0,0
81892,-10000.0,4,1,0,70,0,0
81912,-12.5,4,1,0,70,0,0
81932,-10000.0,4,1,0,70,0,0
81935,342.85714285714283,4,1,0,70,1,0
82621,1028.5714285714284,4,1,0,70,1,0
82621,-12.5,4,1,0,70,0,0
82641,-10000.0,4,1,0,70,0,0
82661,-12.5,4,1,0,70,0,0
82681,-10000.0,4,1,0,70,0,0
82701,-12.5,4,1,0,70,0,0
82721,-10000.0,4,1,0,70,0,0
82741,-12.5,4,1,0,70,0,0
82761,-10000.0,4,1,0,70,0,0
82781,-12.5,4,1,0,70,0,0
82801,-10000.0,4,1,0,70,0,0
82821,-12.5,4,1,0,70,0,0
82841,-10000.0,4,1,0,70,0,0
82861,-12.5,4,1,0,70,0,0
82881,-10000.0,4,1,0,70,0,0
82901,-12.5,4,1,0,70,0,0
82921,-10000.0,4,1,0,70,0,0
82941,-12.5,4,1,0,70,0,0
82961,-10000.0,4,1,0,70,0,0
82981,-12.5,4,1,0,70,0,0
83001,-10000.0,4,1,0,70,0,0
83021,-12.5,4,1,0,70,0,0
83041,-10000.0,4,1,0,70,0,0
83061,-12.5,4,1,0,70,0,0
83081,-10000.0,4,1,0,70,0,0
83101,-12.5,4,1,0,70,0,0
83121,-10000.0,4,1,0,70,0,0
83141,-12.5,4,1,0,70,0,0
83161,-10000.0,4,1,0,70,0,0
83181,-12.5,4,1,0,70,0,0
83201,-10000.0,4,1,0,70,0,0
83221,-12.5,4,1,0,70,0,0
83241,-10000.0,4,1,0,70,0,0
83261,-12.5,4,1,0,70,0,0
83281,-10000.0,4,1,0,70,0,0
83301,-12.5,4,1,0,70,0,0
83321,-10000.0,4,1,0,70,0,0
83341,-12.5,4,1,0,70,0,0
83361,-10000.0,4,1,0,70,0,0
83381,-12.5,4,1,0,70,0,0
83401,-10000.0,4,1,0,70,0,0
83421,-12.5,4,1,0,70,0,0
83441,-10000.0,4,1,0,70,0,0
83461,-12.5,4,1,0,70,0,0
83481,-10000.0,4,1,0,70,0,0
83501,-12.5,4,1,0,70,0,0
83521,-10000.0,4,1,0,70,0,0
83541,-12.5,4,1,0,70,0,0
83561,-10000.0,4,1,0,70,0,0
83581,-12.5,4,1,0,70,0,0
83601,-10000.0,4,1,0,70,0,0
83621,-12.5,4,1,0,70,0,0
83641,-10000.0,4,1,0,70,0,0
83650,342.85714285714283,4,1,0,70,1,0
84335,1028.5714285714284,4,1,0,70,1,0
84335,-12.5,4,1,0,70,0,0
84355,-10000.0,4,1,0,70,0,0
84375,-12.5,4,1,0,70,0,0
84395,-10000.0,4,1,0,70,0,0
84415,-12.5,4,1,0,70,0,0
84435,-10000.0,4,1,0,70,0,0
84455,-12.5,4,1,0,70,0,0
84475,-10000.0,4,1,0,70,0,0
84495,-12.5,4,1,0,70,0,0
84515,-10000.0,4,1,0,70,0,0
84535,-12.5,4,1,0,70,0,0
84555,-10000.0,4,1,0,70,0,0
84575,-12.5,4,1,0,70,0,0
84595,-10000.0,4,1,0,70,0,0
84615,-12.5,4,1,0,70,0,0
84635,-10000.0,4,1,0,70,0,0
84655,-12.5,4,1,0,70,0,0
84675,-10000.0,4,1,0,70,0,0
84678,342.85714285714283,4,1,0,70,1,0
85364,1028.5714285714284,4,1,0,70,1,0
85364,-12.5,4,1,0,70,0,0
85384,-10000.0,4,1,0,70,0,0
85404,-12.5,4,1,0,70,0,0
85424,-10000.0,4,1,0,70,0,0
85444,-12.5,4,1,0,70,0,0
85464,-10000.0,4,1,0,70,0,0
85484,-12.5,4,1,0,70,0,0
85504,-10000.0,4,1,0,70,0,0
85524,-12.5,4,1,0,70,0,0
85544,-10000.0,4,1,0,70,0,0
85564,-12.5,4,1,0,70,0,0
85584,-10000.0,4,1,0,70,0,0
85604,-12.5,4,1,0,70,0,0
85624,-10000.0,4,1,0,70,0,0
85644,-12.5,4,1,0,70,0,0
85664,-10000.0,4,1,0,70,0,0
85684,-12.5,4,1,0,70,0,0
85704,-10000.0,4,1,0,70,0,0
85724,-12.5,4,1,0,70,0,0
85744,-10000.0,4,1,0,70,0,0
85764,-12.5,4,1,0,70,0,0
85784,-10000.0,4,1,0,70,0,0
85804,-12.5,4,1,0,70,0,0
85824,-10000.0,4,1,0,70,0,0
85844,-12.5,4,1,0,70,0,0
85864,-10000.0,4,1,0,70,0,0
85884,-12.5,4,1,0,70,0,0
85904,-10000.0,4,1,0,70,0,0
85924,-12.5,4,1,0,70,0,0
85944,-10000.0,4,1,0,70,0,0
85964,-12.5,4,1,0,70,0,0
85984,-10000.0,4,1,0,70,0,0
86004,-12.5,4,1,0,70,0,0
86024,-10000.0,4,1,0,70,0,0
86044,-12.5,4,1,0,70,0,0
86064,-10000.0,4,1,0,70,0,0
86084,-12.5,4,1,0,70,0,0
86104,-10000.0,4,1,0,70,0,0
86124,-12.5,4,1,0,70,0,0
86144,-10000.0,4,1,0,70,0,0
86164,-12.5,4,1,0,70,0,0
86184,-10000.0,4,1,0,70,0,0
86204,-12.5,4,1,0,70,0,0
86224,-10000.0,4,1,0,70,0,0
86244,-12.5,4,1,0,70,0,0
86264,-10000.0,4,1,0,70,0,0
86284,-12.5,4,1,0,70,0,0
86304,-10000.0,4,1,0,70,0,0
86324,-12.5,4,1,0,70,0,0
86344,-10000.0,4,1,0,70,0,0
86364,-12.5,4,1,0,70,0,0
86384,-10000.0,4,1,0,70,0,0
86392,342.85714285714283,4,1,0,70,1,0
87078,1e-100,4,1,0,70,1,0
87079,1e+100,4,1,0,70,1,0
87249,1.0000000000000002,4,1,0,70,1,0
87250,1e-100,4,1,0,70,1,0
87251,342.85714285714283,4,1,0,70,1,0
87421,1e+100,4,1,0,70,1,0
87506,3.9867109634551494,4,1,0,70,1,0
87507,1e+100,4,1,0,70,1,0
87677,4.010025062656641,4,1,0,70,1,0
87678,1e+100,4,1,0,70,1,0
87763,3.9867109634551494,4,1,0,70,1,0
87764,1e-100,4,1,0,70,1,0
87765,1e+100,4,1,0,70,1,0
87934,1.0000000000000002,4,1,0,70,1,0
87935,1e-100,4,1,0,70,1,0
87936,342.85714285714283,4,1,0,70,1,0
88107,1e+100,4,1,0,70,1,0
88191,4.033613445378151,4,1,0,70,1,0
88192,1e+100,4,1,0,70,1,0
88363,3.9867109634551494,4,1,0,70,1,0
88364,1e+100,4,1,0,70,1,0
88449,3.9867109634551494,4,1,0,70,1,0
88450,1e-100,4,1,0,70,1,0
88451,1e+100,4,1,0,70,1,0
88620,1.0000000000000002,4,1,0,70,1,0
88621,1e-100,4,1,0,70,1,0
88622,342.85714285714283,4,1,0,70,1,0
88792,1e+100,4,1,0,70,1,0
88877,3.9867109634551494,4,1,0,70,1,0
88878,1e+100,4,1,0,70,1,0
89049,3.9867109634551494,4,1,0,70,1,0
89050,1e+100,4,1,0,70,1,0
89134,4.033613445378151,4,1,0,70,1,0
89135,342.85714285714283,4,1,0,70,1,0
133363,1e-100,4,1,0,70,1,0
133364,1e+100,4,1,0,70,1,0
133534,2.0000000000000004,4,1,0,70,1,0
133535,1e+100,4,1,0,70,1,0
133706,2.0000000000000004,4,1,0,70,1,0
133707,1e-100,4,1,0,70,1,0
133708,1e+100,4,1,0,70,1,0
133877,1.0000000000000002,4,1,0,70,1,0
133878,1e-100,4,1,0,70,1,0
133879,342.85714285714283,4,1,0,70,1,0
134050,1e+100,4,1,0,70,1,0
134134,4.033613445378151,4,1,0,70,1,0
134135,1e-100,4,1,0,70,1,0
134136,342.85714285714283,4,1,0,70,1,0
134307,1e+100,4,1,0,70,1,0
134391,4.033613445378151,4,1,0,70,1,0
134392,1e-100,4,1,0,70,1,0
134393,1e+100,4,1,0,70,1,0
134563,1.0000000000000002,4,1,0,70,1,0
134564,1e-100,4,1,0,70,1,0
134565,342.85714285714283,4,1,0,70,1,0
134735,1e+100,4,1,0,70,1,0
134820,3.9867109634551494,4,1,0,70,1,0
134821,1e+100,4,1,0,70,1,0
134906,3.9867109634551494,4,1,0,70,1,0
134907,1e-100,4,1,0,70,1,0
134908,1e+100,4,1,0,70,1,0
135077,1.0000000000000002,4,1,0,70,1,0
135078,1e-100,4,1,0,70,1,0
135079,1e+100,4,1,0,70,1,0
135249,2.0000000000000004,4,1,0,70,1,0
135250,1e-100,4,1,0,70,1,0
135251,342.85714285714283,4,1,0,70,1,0
135421,1e+100,4,1,0,70,1,0
135506,3.9867109634551494,4,1,0,70,1,0
135507,1e+100,4,1,0,70,1,0
135591,4.033613445378151,4,1,0,70,1,0
135592,1e-100,4,1,0,70,1,0
135593,1e+100,4,1,0,70,1,0
135763,1.0000000000000002,4,1,0,70,1,0
135764,1e-100,4,1,0,70,1,0
135765,1e+100,4,1,0,70,1,0
135934,2.0000000000000004,4,1,0,70,1,0
135935,1e-100,4,1,0,70,1,0
135936,1e+100,4,1,0,70,1,0
136106,2.0000000000000004,4,1,0,70,1,0
136107,342.85714285714283,4,1,0,70,1,0
136450,1e-100,4,1,0,70,1,0
136451,1e+100,4,1,0,70,1,0
136620,1.0000000000000002,4,1,0,70,1,0
136621,1e-100,4,1,0,70,1,0
136622,342.85714285714283,4,1,0,70,1,0
136792,1e+100,4,1,0,70,1,0
136877,3.9867109634551494,4,1,0,70,1,0
136878,1e+100,4,1,0,70,1,0
137050,1e+100,4,1,0,70,1,0
137134,4.033613445378151,4,1,0,70,1,0
137135,1e-100,4,1,0,70,1,0
137136,1e+100,4,1,0,70,1,0
137306,1.0000000000000002,4,1,0,70,1,0
137307,1e-100,4,1,0,70,1,0
137308,342.85714285714283,4,1,0,70,1,0
137478,1e+100,4,1,0,70,1,0
137563,3.9867109634551494,4,1,0,70,1,0
137564,1e+100,4,1,0,70,1,0
137735,1e+100,4,1,0,70,1,0
137820,3.9867109634551494,4,1,0,70,1,0
137821,1e-100,4,1,0,70,1,0
137822,1e+100,4,1,0,70,1,0
137991,1.0000000000000002,4,1,0,70,1,0
137992,1e-100,4,1,0,70,1,0
137993,342.85714285714283,4,1,0,70,1,0
138164,1e+100,4,1,0,70,1,0
138249,3.9867109634551494,4,1,0,70,1,0
138250,1e+100,4,1,0,70,1,0
138421,1e+100,4,1,0,70,1,0
138506,3.9867109634551494,4,1,0,70,1,0
138507,342.85714285714283,4,1,0,70,1,0
139021,4.000000000000001,4,1,0,70,1,0
139022,1e+100,4,1,0,70,1,0
139106,4.000000000000001,4,1,0,70,1,0
139107,1e+100,4,1,0,70,1,0
139191,4.000000000000001,4,1,0,70,1,0
139192,1e-100,4,1,0,70,1,0
139193,1e+100,4,1,0,70,1,0
139363,1.0000000000000002,4,1,0,70,1,0
139364,1e-100,4,1,0,70,1,0
139365,342.85714285714283,4,1,0,70,1,0
139535,1e+100,4,1,0,70,1,0
139620,3.9867109634551494,4,1,0,70,1,0
139621,1e-100,4,1,0,70,1,0
139622,342.85714285714283,4,1,0,70,1,0
139792,1e+100,4,1,0,70,1,0
139877,3.9867109634551494,4,1,0,70,1,0
139878,1e-100,4,1,0,70,1,0
139879,1e+100,4,1,0,70,1,0
140049,1.0000000000000002,4,1,0,70,1,0
140050,1e-100,4,1,0,70,1,0
140051,342.85714285714283,4,1,0,70,1,0
140221,1e+100,4,1,0,70,1,0
140306,3.9867109634551494,4,1,0,70,1,0
140307,1e-100,4,1,0,70,1,0
140308,342.85714285714283,4,1,0,70,1,0
140478,1e+100,4,1,0,70,1,0
140563,3.9867109634551494,4,1,0,70,1,0
140564,1e-100,4,1,0,70,1,0
140565,1e+100,4,1,0,70,1,0
140734,1.0000000000000002,4,1,0,70,1,0
140735,1e-100,4,1,0,70,1,0
140736,342.85714285714283,4,1,0,70,1,0
140907,1e+100,4,1,0,70,1,0
140991,4.033613445378151,4,1,0,70,1,0
140992,1e+100,4,1,0,70,1,0
141077,3.9867109634551494,4,1,0,70,1,0
141078,1e-100,4,1,0,70,1,0
141079,1e+100,4,1,0,70,1,0
141249,1.0000000000000002,4,1,0,70,1,0
141250,1e-100,4,1,0,70,1,0
141251,1e+100,4,1,0,70,1,0
141420,2.0000000000000004,4,1,0,70,1,0
141421,1e-100,4,1,0,70,1,0
141422,1e+100,4,1,0,70,1,0
141591,2.0000000000000004,4,1,0,70,1,0
141592,342.85714285714283,4,1,0,70,1,0
141935,1e-100,4,1,0,70,1,0
141936,1e+100,4,1,0,70,1,0
142106,1.0000000000000002,4,1,0,70,1,0
142107,1e-100,4,1,0,70,1,0
142108,342.85714285714283,4,1,0,70,1,0
142278,1e+100,4,1,0,70,1,0
142363,3.9867109634551494,4,1,0,70,1,0
142364,1e+100,4,1,0,70,1,0
142535,1e+100,4,1,0,70,1,0
142620,3.9867109634551494,4,1,0,70,1,0
142621,342.85714285714283,4,1,0,70,1,0
143307,1e-100,4,1,0,70,1,0
143308,1e+100,4,1,0,70,1,0
143477,1.0000000000000002,4,1,0,70,1,0
143478,1e-100,4,1,0,70,1,0
143479,342.85714285714283,4,1,0,70,1,0
143650,1e+100,4,1,0,70,1,0
143734,4.033613445378151,4,1,0,70,1,0
143735,1e+100,4,1,0,70,1,0
143907,1e+100,4,1,0,70,1,0
143991,4.033613445378151,4,1,0,70,1,0
143992,342.85714285714283,4,1,0,70,1,0
144507,4.000000000000001,4,1,0,70,1,0
144508,1e+100,4,1,0,70,1,0
144591,4.000000000000001,4,1,0,70,1,0
144592,1e+100,4,1,0,70,1,0
144677,4.000000000000001,4,1,0,70,1,0
144678,1e-100,4,1,0,70,1,0
144679,1e+100,4,1,0,70,1,0
144849,1.0000000000000002,4,1,0,70,1,0
144850,1e-100,4,1,0,70,1,0
144851,342.85714285714283,4,1,0,70,1,0
145021,1e+100,4,1,0,70,1,0
145106,3.9867109634551494,4,1,0,70,1,0
145107,1e-100,4,1,0,70,1,0
145108,342.85714285714283,4,1,0,70,1,0
145278,1e+100,4,1,0,70,1,0
145363,3.9867109634551494,4,1,0,70,1,0
145364,1e-100,4,1,0,70,1,0
145365,1e+100,4,1,0,70,1,0
145534,1.0000000000000002,4,1,0,70,1,0
145535,1e-100,4,1,0,70,1,0
145536,342.85714285714283,4,1,0,70,1,0
145707,1e+100,4,1,0,70,1,0
145791,4.033613445378151,4,1,0,70,1,0
145792,1e+100,4,1,0,70,1,0
145877,3.9867109634551494,4,1,0,70,1,0
145878,1e-100,4,1,0,70,1,0
145879,1e+100,4,1,0,70,1,0
146049,1.0000000000000002,4,1,0,70,1,0
146050,1e-100,4,1,0,70,1,0
146051,1e+100,4,1,0,70,1,0
146220,2.0000000000000004,4,1,0,70,1,0
146221,1e-100,4,1,0,70,1,0
146222,342.85714285714283,4,1,0,70,1,0
146392,1e+100,4,1,0,70,1,0
146477,3.9867109634551494,4,1,0,70,1,0
146478,1e+100,4,1,0,70,1,0
146563,3.9867109634551494,4,1,0,70,1,0
146564,1e-100,4,1,0,70,1,0
146565,1e+100,4,1,0,70,1,0
146734,1.0000000000000002,4,1,0,70,1,0
146735,1e-100,4,1,0,70,1,0
146736,1e+100,4,1,0,70,1,0
146906,2.0000000000000004,4,1,0,70,1,0
146907,1e-100,4,1,0,70,1,0
146908,1e+100,4,1,0,70,1,0
147077,2.0000000000000004,4,1,0,70,1,0
147078,342.85714285714283,4,1,0,70,1,0
147421,1e-100,4,1,0,70,1,0
147422,1e+100,4,1,0,70,1,0
147591,1.0000000000000002,4,1,0,70,1,0
147592,1e-100,4,1,0,70,1,0
147593,342.85714285714283,4,1,0,70,1,0
147764,1e+100,4,1,0,70,1,0
147849,3.9867109634551494,4,1,0,70,1,0
147850,1e+100,4,1,0,70,1,0
148021,1e+100,4,1,0,70,1,0
148106,3.9867109634551494,4,1,0,70,1,0
148107,1e-100,4,1,0,70,1,0
148108,1e+100,4,1,0,70,1,0
148277,1.0000000000000002,4,1,0,70,1,0
148278,1e-100,4,1,0,70,1,0
148279,342.85714285714283,4,1,0,70,1,0
148450,1e+100,4,1,0,70,1,0
148534,4.033613445378151,4,1,0,70,1,0
148535,1e+100,4,1,0,70,1,0
148707,1e+100,4,1,0,70,1,0
148791,4.033613445378151,4,1,0,70,1,0
148792,1e-100,4,1,0,70,1,0
148793,1e+100,4,1,0,70,1,0
148963,1.0000000000000002,4,1,0,70,1,0
148964,1e-100,4,1,0,70,1,0
148965,342.85714285714283,4,1,0,70,1,0
149135,1e+100,4,1,0,70,1,0
149220,3.9867109634551494,4,1,0,70,1,0
149221,1e+100,4,1,0,70,1,0
149392,1e+100,4,1,0,70,1,0
149477,3.9867109634551494,4,1,0,70,1,0
149478,342.85714285714283,4,1,0,70,1,0
149992,4.000000000000001,4,1,0,70,1,0
149993,1e+100,4,1,0,70,1,0
150077,4.000000000000001,4,1,0,70,1,0
150078,1e+100,4,1,0,70,1,0
150163,4.000000000000001,4,1,0,70,1,0
150164,1e-100,4,1,0,70,1,0
150165,1e+100,4,1,0,70,1,0
150334,1.0000000000000002,4,1,0,70,1,0
150335,1e-100,4,1,0,70,1,0
150336,342.85714285714283,4,1,0,70,1,0
150507,1e+100,4,1,0,70,1,0
150591,4.033613445378151,4,1,0,70,1,0
150592,1e-100,4,1,0,70,1,0
150593,342.85714285714283,4,1,0,70,1,0
150764,1e+100,4,1,0,70,1,0
150849,3.9867109634551494,4,1,0,70,1,0
150850,1e-100,4,1,0,70,1,0
150851,1e+100,4,1,0,70,1,0
151020,1.0000000000000002,4,1,0,70,1,0
151021,1e-100,4,1,0,70,1,0
151022,342.85714285714283,4,1,0,70,1,0
151192,1e+100,4,1,0,70,1,0
151277,3.9867109634551494,4,1,0,70,1,0
151278,1e-100,4,1,0,70,1,0
151279,342.85714285714283,4,1,0,70,1,0
151450,1e+100,4,1,0,70,1,0
151534,4.033613445378151,4,1,0,70,1,0
151535,1e-100,4,1,0,70,1,0
151536,1e+100,4,1,0,70,1,0
151706,1.0000000000000002,4,1,0,70,1,0
151707,1e-100,4,1,0,70,1,0
151708,342.85714285714283,4,1,0,70,1,0
151878,1e+100,4,1,0,70,1,0
151963,3.9867109634551494,4,1,0,70,1,0
151964,1e+100,4,1,0,70,1,0
152049,3.9867109634551494,4,1,0,70,1,0
152050,1e-100,4,1,0,70,1,0
152051,1e+100,4,1,0,70,1,0
152220,1.0000000000000002,4,1,0,70,1,0
152221,1e-100,4,1,0,70,1,0
152222,1e+100,4,1,0,70,1,0
152391,2.0000000000000004,4,1,0,70,1,0
152392,1e-100,4,1,0,70,1,0
152393,1e+100,4,1,0,70,1,0
152563,2.0000000000000004,4,1,0,70,1,0
152564,342.85714285714283,4,1,0,70,1,0
152907,1e-100,4,1,0,70,1,0
152908,1e+100,4,1,0,70,1,0
153077,1.0000000000000002,4,1,0,70,1,0
153078,1e-100,4,1,0,70,1,0
153079,342.85714285714283,4,1,0,70,1,0
153250,1e+100,4,1,0,70,1,0
153334,4.033613445378151,4,1,0,70,1,0
153335,1e+100,4,1,0,70,1,0
153507,1e+100,4,1,0,70,1,0
153591,4.033613445378151,4,1,0,70,1,0
153592,1e-100,4,1,0,70,1,0
153593,1e+100,4,1,0,70,1,0
153763,1.0000000000000002,4,1,0,70,1,0
153764,1e-100,4,1,0,70,1,0
153765,342.85714285714283,4,1,0,70,1,0
153935,1e+100,4,1,0,70,1,0
154020,3.9867109634551494,4,1,0,70,1,0
154021,1e+100,4,1,0,70,1,0
154192,1e+100,4,1,0,70,1,0
154277,3.9867109634551494,4,1,0,70,1,0
154278,1e-100,4,1,0,70,1,0
154279,1e+100,4,1,0,70,1,0
154449,1.0000000000000002,4,1,0,70,1,0
154450,1e-100,4,1,0,70,1,0
154451,342.85714285714283,4,1,0,70,1,0
154621,1e+100,4,1,0,70,1,0
154706,3.9867109634551494,4,1,0,70,1,0
154707,1e+100,4,1,0,70,1,0
154878,1e+100,4,1,0,70,1,0
154963,3.9867109634551494,4,1,0,70,1,0
154964,342.85714285714283,4,1,0,70,1,0
155649,2.0000000000000004,4,1,0,70,1,0
155650,342.85714285714283,4,1,0,70,1,0
155821,1e+100,4,1,0,70,1,0
155991,2.0000000000000004,4,1,0,70,1,0
155992,342.85714285714283,4,1,0,70,1,0
156164,1e+100,4,1,0,70,1,0
156334,2.0000000000000004,4,1,0,70,1,0
156335,342.85714285714283,4,1,0,70,1,0
156507,1e+100,4,1,0,70,1,0
156677,2.0000000000000004,4,1,0,70,1,0
156678,342.85714285714283,4,1,0,70,1,0
156850,1e+100,4,1,0,70,1,0
157020,2.0000000000000004,4,1,0,70,1,0
157021,342.85714285714283,4,1,0,70,1,0
157192,1e+100,4,1,0,70,1,0
157363,2.0000000000000004,4,1,0,70,1,0
157364,342.85714285714283,4,1,0,70,1,0
157535,1e+100,4,1,0,70,1,0
157706,2.0000000000000004,4,1,0,70,1,0
157707,342.85714285714283,4,1,0,70,1,0
157878,1e+100,4,1,0,70,1,0
158049,2.0000000000000004,4,1,0,70,1,0
158050,342.85714285714283,4,1,0,70,1,0
163878,1e-100,4,1,0,70,1,0
163879,1e+100,4,1,0,70,1,0
164049,1.0000000000000002,4,1,0,70,1,0
164050,1e-100,4,1,0,70,1,0
164051,342.85714285714283,4,1,0,70,1,0
164221,1e+100,4,1,0,70,1,0
164306,3.9867109634551494,4,1,0,70,1,0
164307,1e+100,4,1,0,70,1,0
164477,4.010025062656641,4,1,0,70,1,0
164478,1e+100,4,1,0,70,1,0
164563,3.9867109634551494,4,1,0,70,1,0
164564,1e-100,4,1,0,70,1,0
164565,1e+100,4,1,0,70,1,0
164734,1.0000000000000002,4,1,0,70,1,0
164735,1e-100,4,1,0,70,1,0
164736,342.85714285714283,4,1,0,70,1,0
164907,1e+100,4,1,0,70,1,0
164991,4.033613445378151,4,1,0,70,1,0
164992,1e+100,4,1,0,70,1,0
165163,3.9867109634551494,4,1,0,70,1,0
165164,1e+100,4,1,0,70,1,0
165249,3.9867109634551494,4,1,0,70,1,0
165250,1e-100,4,1,0,70,1,0
165251,1e+100,4,1,0,70,1,0
165420,1.0000000000000002,4,1,0,70,1,0
165421,1e-100,4,1,0,70,1,0
165422,342.85714285714283,4,1,0,70,1,0
165592,1e+100,4,1,0,70,1,0
165677,3.9867109634551494,4,1,0,70,1,0
165678,1e+100,4,1,0,70,1,0
165849,3.9867109634551494,4,1,0,70,1,0
165850,1e+100,4,1,0,70,1,0
165934,4.033613445378151,4,1,0,70,1,0
165935,342.85714285714283,4,1,0,70,1,0

[HitObjects]

